Input 1:
=============================================================
5
8
0 1 -1
0 2 4
1 2 3
1 3 2
1 4 2
3 2 5
3 1 1
4 3 -3
0


=============================================================
Input 2:
=============================================================
6
9
0 2 20
0 1 10
1 3 50
1 4 10
2 3 20
2 4 33
3 4 -20
3 5 -2
4 5 1
0

=============================================================
Input 3, negative cycle:
=============================================================
6
8
0 2 20
0 1 10
1 3 50
2 3 20
2 4 46
4 5 -2
5 4 -1
5 2 89
0